Unequal Development of Brazil Municipalities
…
# Checking for NA and duplicate values
any(is.na(brazilcities))

## [1] TRUE

any(duplicated(brazilcities))

## [1] FALSE

brazilcities[rowSums(is.na(brazilcities))!=0,]

## # A tibble: 5,538 x 81
##    CITY  STATE CAPITAL IBGE_RES_POP IBGE_RES_POP_BR~ IBGE_RES_POP_ES~
##    <chr> <chr>   <dbl>        <dbl>            <dbl>            <dbl>
##  1 Abad~ GO          0         6876             6876                0
##  2 Abad~ MG          0         6704             6704                0
##  3 Abad~ GO          0        15757            15609              148
##  4 Abae~ MG          0        22690            22690                0
##  5 Abae~ PA          0       141100           141040               60
##  6 Abai~ CE          0        10496            10496                0
##  7 Aba~ BA          0         8316             8316                0
##  8 Abar BA          0        17064            17064                0
##  9 Abat~ PR          0         7764             7764                0
## 10 Abdo~ SC          0         2653             2653                0
## # ... with 5,528 more rows, and 75 more variables: IBGE_DU <dbl>,
## #   IBGE_DU_URBAN <dbl>, IBGE_DU_RURAL <dbl>, IBGE_POP <dbl>,
## #   IBGE_1 <dbl>, `IBGE_1-4` <dbl>, `IBGE_5-9` <dbl>, `IBGE_10-14` <dbl>,
## #   `IBGE_15-59` <dbl>, `IBGE_60+` <dbl>, IBGE_PLANTED_AREA <dbl>,
## #   `IBGE_CROP_PRODUCTION_$` <dbl>, `IDHM Ranking 2010` <dbl>, IDHM <chr>,
## #   IDHM_Renda <chr>, IDHM_Longevidade <chr>, IDHM_Educacao <chr>,
## #   LONG <dbl>, LAT <dbl>, ALT <chr>, PAY_TV <dbl>, FIXED_PHONES <dbl>,
## #   AREA <dbl>, REGIAO_TUR <chr>, CATEGORIA_TUR <chr>,
## #   ESTIMATED_POP <dbl>, RURAL_URBAN <chr>, GVA_AGROPEC <chr>,
…
